{
  "ReRoutes": [
    {
      "DownstreamPathTemplate": "/api/authorization/{eveything}",
      "DownstreamScheme": "https",
      "DownstreamHostAndPorts": [
        {
          "Host": "localhost",
          "Port": 44350
        }
      ],
      "UpstreamPathTemplate": "/authorization/{eveything}",
      "UpstreamHttpMethod": [ "POST", "PUT", "GET", "DELETE" ]
    },
    {
      "DownstreamPathTemplate": "/api/{eveything}",
      "DownstreamScheme": "https",
      "DownstreamHostAndPorts": [
        {
          "Host": "localhost",
          "Port": 44350
        }
      ],
      "UpstreamPathTemplate": "/users/{eveything}",
      "UpstreamHttpMethod": [ "POST", "PUT", "GET", "DELETE" ]
    },
    {
      "DownstreamPathTemplate": "/api/{eveything}",
      "DownstreamScheme": "https",
      "DownstreamHostAndPorts": [
        {
          "Host": "localhost",
          "Port": 44327
        }
      ],
      "UpstreamPathTemplate": "/groups/{eveything}",
      "UpstreamHttpMethod": [ "POST", "PUT", "GET", "DELETE" ]
    }
  ]
}
